loan_application_number(MANDATORY),date of visit(MANDATORY),time of visit(MANDATORY),asset_manager_name(MANDATORY),person met(MANDATORY),nature of work(MANDATORY),app uninstallation reason,customer feedback,asset manager feedback(MANDATORY),new business address,visited business address(MANDATORY),primary applicant alternative number,secondary applicant alternative number,business premise availability(MANDATORY),business operational at given address(MANDATORY),employee number declaration(MANDATORY),employee number on site(MANDATORY),sign board availability(MANDATORY),raw material value in rupees,stock or inventory in rupees,asset or machinery value in rupees,number of customers(MANDATORY),average debtor cycle(MANDATORY),average creditor cycle(MANDATORY),recorded coordinates,business place photos
ZL57295345,7/6/2017,,,NA,shop closed also not available at residence address,,NA,Negative-Shop closed from last 2 weeks also customer not available at resi address,,"A -948, SHOP NO 2 AVANTIKA MARKET, SECTOR 2, ROHINI",,,,,NA,NA,Pre system visit,,,,,,,NA,NA
ZL50498811,7/6/2017,,,Neighbour,Readymade Garments,,NA,neigbour met client has shifted at given address and not answering the call,,SHOP NO. 222 D 12 ROHINI SECTOR 7,,,,,NA,NA,,,,,,,,NA,NA
ZL98649086,7/6/2017,,,Customer,fast food ,,NA,Good Work,,"Adarsh Nagar, Block AP, Poorvi Pitampura, Pitampura, Delhi, 110034",,,,,8,12,,,,,,,,NA,NA
ZL74047842,7/7/2017,,,Employee,Restaurent,,NA,Good Work,,"181-B, GROUND FLOOR, KHIRKI VILLAGE, MALVIYA NAGAR, NEW DELHI",,,,,NA,NA,,,,,,,,NA,NA
ZL14341576,7/7/2017,,,Employee,courier,,NA,Good Work,,"A-245, Devli Road, Devli Rd, Duggal Colony, Khanpur, New Delhi, Delhi 110062",,,,,NA,NA,,,,,,,,NA,NA
ZL40974132,7/7/2017,,,Employee,furniture packing,,NA,Good Work,,"E-6A/253, SANGAM VIHAR, NEW DELHI",,,,,NA,NA,,,,,,,,NA,NA
ZL7055873,7/7/2017,,,Customer,Readymade Garments,,NA,Good Work,,"H.NO-410,A-17,KH NO-1525,SANGAM VIHAR",,,,,1,2,,,,,,,,NA,NA
ZL1342324,7/7/2017,,,Customer,shirts manufaturing,,NA,Good Work,,HNO. 9 BANGER MAHOLLA TUGHLAKABAD VILLAGE,,,,,14,22,,,,,,,,NA,NA
ZL12944697,7/10/2017,,,Customer,Readymade Garments,,NA,Good Work,,RZ E 34 GANDHI MARKET WEST SAGARPUR,,,,,4,7,,,,,,,,NA,NA
ZL90991872,7/10/2017,,,Customer,Embroidery factory,,NA,Good Work,,"H.NO 190, KH.NO 12/14/1, DEEP ENCLAVE PAR 1, GALI NO 8, VIKAS NGR NEW DELHI NEAR GUDDU TIMER STORE",,,,,10,18,,,,,,,,NA,NA
ZL11710613,7/10/2017,,,Employee,wheat mill,,NA,Good Work,,"SHOP AT PLOT NO 450,G/F BLOCK B, VIKAS VIHAR, VIKAS NAGAR,UTTAM NAGAR",,,,,NA,NA,,,,,,,,NA,NA
ZL92381666,7/10/2017,,,NA,wrong address and client not conatactable,,NA,Good Work,,"VILLAGE NAWADA, FATEHPUR, P.O: SIKANDERPUR",,,,,NA,NA,,,,,,,,NA,NA
ZL51474583,7/10/2017,,,NA,shop closed,,NA,Negative-shop closed and customer not answering the calls,,"Plot No A-1 A/41 A-FF, CHANAKYA PLACE UTTAM NAGAR",,,,,NA,NA,,,,,,,,NA,NA
ZL45841710,7/12/2017,,,Customer,fruits wholeseller,,NA,Good Work,,C 121 NEW SABJI MANDI AJADPUR,,,,,2,2,,,,,,,,NA,NA
ZL68955494,7/12/2017,,,Customer,E Rickshaw,,NA,Good Work,,"KH. NO 23/15/1, GF MAIN 100 FUTA ROAD KAMAL PUR MAZRA VILLAGE OPP PS BURARI",,,,,10,12,,,,,,,,NA,NA
ZL57295345,7/13/2017,,,Daughter,Readymade Garments,,NA,Good Work,,New address-shop riya collection rani bagh main market,,,,,NA,NA,,,,,,,,NA,NA
ZL19389314,7/13/2017,,,Customer,Lubricants wholeseller,,NA,Good Work,,PLOT NO. C 44/1 KH. NO. 61/1/1 POLE NO. NGLA964 NARESH PARK EXTN NANGLOI,,,,,6,10,,,,,,,,NA,NA
ZL59963325,7/13/2017,,,Customer,Readymade Garments,,NA,Good Work,,"HOUSE NO 202,FF INDRAPASTHA COLONY  SEC 30 33",,,,,4,4,,,,,,,,NA,NA
ZL19170033,7/13/2017,,,NA,client not ready to meet,,NA,Client not ready to meet and said I am irritating from reminder calls.,,"SRS 126,KH NO-487,POLE NO-58,PEERA GARHI",,,,,NA,NA,,,,,,,,NA,NA
ZL43509872,7/14/2017,,,Customer,Leather factory,,NA,Good Work,,"1757/22 SECOND FLOOR, SHASTRI NAGAR DELHI",,,,,7,10,,,,,,,,NA,NA
ZL27104869,7/14/2017,,,Employee,motors factory,,NA,Good Work,,M 9 GALI 1 ANAND PARBAT ND,,,,,NA,NA,,,,,,,,NA,NA
ZL40552732,7/14/2017,,,Customer,travel agent,,NA,Good Work,,16/20 JOSHI ROAD KAROL BAGH,,,,,3,4,,,,,,,,NA,NA
ZL81373549,7/14/2017,,,NA,shop closed,,NA,customer asking to revisit after 1 week,,"313/2B , SHOP NO. 4 ,INDERLOK , DELHI",,,,,NA,NA,,,,,,,,NA,NA
ZL94821962,7/15/2017,,,Customer,screw manufacuring,,NA,Good Work,,"PLOT-10, SHANI BAZZAR GALI,JOHARIPUR DELHI",,,,,5,5,,,,,,,,NA,NA
ZL89959631,7/15/2017,,,Customer,Hosiery shop,,NA,Good Work,,H.N.315 GROUND FLOOR AND 1ST FLOOR RWA KHAJANI NAGAR JOHRIPUR DAYALPUR,,,,,2,5,,,,,,,,NA,NA
ZL70197248,7/15/2017,,,Customer,computer shop,,NA,Good Work,,C2/168 SHOP NO. 1 MAIN ROAD YAMUNA VIHAR,,,,,3,4,,,,,,,,NA,NA
ZL5966343,7/15/2017,,,Customer,Toys shop,,NA,Good Work,,"C-251, GALI NO-2, JAGDAMBA COLONY, NEAR GATTA FECTORY, JOHRI PUR EAST DELHI",,,,,13,18,,,,,,,,NA,NA
ZL70927502,7/17/2017,,,Customer,mobile shop,,NA,Good Work,,35/8 G.FLR OLD RAJENDER NAGAR SHANKAR ROAD,,,,,2,3,,,,,,,,NA,NA
ZL27933575,7/17/2017,,,NA,shop closed,,NA,shop closed due to week off.,,"2352/101 , GALI NO - 14 , BEADON PURA , KAROL BAGH",,,,,NA,NA,,,,,,,,NA,NA
ZL99293544,7/18/2017,,,NA,client not ready to meet,,NA,Customer not agree to meet and not confirm our address,,"2284/6,BAGICHI RAGUNATH SADAR BAZZAR",,,,,NA,NA,,,,,,,,NA,NA
ZL61772400,7/18/2017,,,Employee,Led whole seller,,NA,Good Work,,841 A OLD LAJPAT  RAI MARKET,,,,,NA,NA,,,,,,,,NA,NA
ZL81690800,7/18/2017,,,Customer,Bearing shop,,NA,Good Work,,1519/11 F/F GALI AKHUNJJ FARASH KAHANA GB ROAD DELHI,,,,,2,4,,,,,,,,NA,NA
ZL19492634,7/18/2017,,,NA,shop closed,,NA,shop closed client out of station,,1455/17 2ND FLOOR SHRI RAM MARKET GALI CHHIPAIN MALIWARA NAI SADAK CHANDANI CHOWK,,,,,NA,NA,,,,,,,,NA,NA
ZL9667692,7/19/2017,,,NA,shop closed,,NA,shop closed client out of station,,"PLOT NO-A-337,F.F JJ COLONY ,MANGLA PURI",,,,,NA,NA,,,,,,,,NA,NA
ZL98046175,7/20/2017,,,NA,shop closed,,NA,shop closed,,A1/2A CHANAKYA PLACE PANKHA ROAD,,,,,NA,NA,,,,,,,,NA,NA
ZL96698094,7/20/2017,,,NA,address not locate,,NA,address not locate,,"PLOT NO- 2 A, KH.NO- 21, PREM VIHAR, NAJAFGARH",,,,,NA,NA,,,,,,,,NA,NA
ZL99151003,7/20/2017,,,NA,address not locate,,NA,address not locate,,"24/3A , MALL ROAD , TILAK NAGAR , NEW DELHI",,,,,NA,NA,,,,,,,,NA,NA
ZL75688898,7/20/2017,,,NA,Wrong address,,NA,wrong address and client not contactable,,H.N. 104 SHIV PURI PHASE 1 NAJAFGARH,,,,,NA,NA,,,,,,,,NA,NA
ZL36243836,7/21/2017,,,Customer,Packing of dei machines,,NA,Good Work,,"H.NO- B-24, RAGHUVEER VIHAR, PREM NAGAR,-3,KIRARI SULEMAN NAGAR,",,,,,5,8,,,,,,,,NA,NA
ZL2461268,7/21/2017,,,NA,Factory closed,,NA,factory closed due to someone is expired in his family.,,"WZ- -71, VILLAGE SULTANPUR MAJRA, NEAR- TRF NO-5,",,,,,NA,NA,,,,,,,,NA,NA
ZL96067492,7/21/2017,,,Customer,website creater and designer,,NA,Good Work,,305 NITIKA TOWER 2 COMMERCIAL COMPLEX AKASH CINEMA AJADPUR,,,,,3,5,,,,,,,,NA,NA
ZL84470358,7/22/2017,,,NA,wrong address and client not answering the calls,,NA,wrong address and client not answering the calls,,4787/76 2ND FLOOR SUMMI HARDWARE MKT HAUZ QAZI,,,,,NA,NA,,,,,,,,NA,NA
ZL95953082,7/22/2017,,,NA,wrong address and client not answering the calls,,NA,wrong address and client not answering the calls,,S-131 2ND FLOOR PANCHSHEEL PARK NEW DELHI,,,,,NA,NA,,,,,,,,NA,NA
ZL67930512,7/25/2017,,,Customer,New and old computers selling shop,,NA,Work is slow due to Gst,,C-129 1ST FLOOR DDA COMUNITY CENTERE JANAKPURI,,,,,2,4,,,,,,,,NA,NA
ZL44434297,7/25/2017,,,NA,wrong adddress,,NA,wrong adddress,,"H.NO-57,GALI NO-4,SANKAR TEK CHAND NAGAR",,,,,NA,NA,,,,,,,,NA,NA
ZL2461268,7/26/2017,,,Employee,Manufacturer of plastic boxes,,NA,Good Work,,"WZ- -71, VILLAGE SULTANPUR MAJRA, NEAR- TRF NO-5,",,,,,NA,NA,,,,,,,,NA,NA
ZL77017576,7/26/2017,,,Employee,automobile workshop,,NA,Good Work,,"952, GALI NO-19, Z-BLOCK, NEAR SUKHI NAHAR,SONI MONI MARKET,PREM NAGAR-2, NITHARI",,,,,NA,NA,,,,,,,,NA,NA
ZL28422819,7/26/2017,,,NA,wrong address,,NA,wrong address,,"B-69/2, GROUND FLOOR, GALI NO- 7, SHASTRI PARK, NEAR -KALI MANDIR",,,,,NA,NA,,,,,,,,NA,NA
ZL2221884,7/29/2017,,,Customer,Undergarments wholeseller,,NA,Good Work,,C-7 RAMANUJ DAYAL MARKET RAMTERAM ROAD GHANTA GHAR GAZIABAD,,,,,2,3,,,,,,,,NA,NA
ZL40155985,7/29/2017,,,NA,Wrong address,,NA,Wrong address,,"PLOT NO 375, SARAI NAZAR ALI, NEAR GHANTA GHAR, GHAZIABAD",,,,,NA,NA,,,,,,,,NA,NA
ZL29639777,7/29/2017,,,Customer,Lubricants wholeseller,,NA,Good Work,,9798 CHOUDHRY MARKET OPP ITC MERUT ROAD GHAZIABAD 201001,,,,,3,5,,,,,,,,NA,NA
ZL94975175,7/29/2017,,,Employee,Security Manpower provider,,NA,Good Work,,H NO-60 RADHA KUNJ NANDGRAM GHAZIABAD,,,,,NA,NA,,,,,,,,NA,NA
ZL58306761,7/31/2017,,,Customer,MANUFACTURING OF PLASTIC BAG,,NA,Good Work,,"KH .NO-136/2,PRIMARY SCHOOL ROAD ,BADLI  110042",,,,,8,10,,,,,,,,NA,NA
ZL87372914,7/31/2017,,,NA,Factory closed,,NA,Factory closed,,"PLOT NO-33,GROUND FLR,PKT B,SEC-1,BAWANA DSIDC",,,,,NA,NA,,,,,,,,NA,NA
ZL15490757,7/31/2017,,,Customer,wholeseller of bikes parts ,,NA,High profile customer having ram material of very high amount,,K 10 DSIDC SEC 2 BAWANA,,,,,12,17,,,,,,,,NA,NA
ZL11361508,7/31/2017,,,Employee,Plastic big bags manufacturer,,NA,Good Work,,"PLOT NO.181 GROUND FLOOR POCKET-N, SECTOR-2, DSIDC BAWANA",,,,,NA,NA,,,,,,,,NA,NA
ZL14869462,7/31/2017,,,Employee,Manufacturer of sanitary plastic pipes,,NA,Good Work,,"PLOT 89, PKT M, SECTOR 5 BAWANA",,,,,NA,NA,,,,,,,,NA,NA
ZL9667692,8/2/2017,,,Customer,stationary and mobile recharge retail shop,,NA,Good Work,,"PLOT NO-A-337,F.F JJ COLONY ,MANGLA PURI",,,,,1,2,,,,,,,,NA,NA
ZL58911302,8/2/2017,,,Customer,computer shop,,NA,Good Work,,B-57/58 INDRA PARK UTTAM NAGAR,,,,,2,3,,,,,,,,NA,NA
ZL98046175,8/2/2017,,,NA,shop closed,,NA,shop closed,,A1/2A CHANAKYA PLACE PANKHA ROAD,,,,,NA,NA,,,,,,,,NA,NA
ZL95953082,8/3/2017,,,Customer,Garments Exporter,,NA,Very Good Work,,S-131 2ND FLOOR PANCHSHEEL PARK NEW DELHI,,,,,1,2,,,,,,,,NA,NA
ZL7941698,8/3/2017,,,Customer,Medical Shop,,NA,Very Good Work,,"118/3, GAUTAM NAGAR 110049",,,,,1,1,,,,,,,,NA,NA
ZL976913,8/3/2017,,,Customer,Study Academy,,NA,Very Good Work,,H.N. 65-A OMPRO TOWERS KALU SARAI,,,,,2,4,,,,,,,,NA,NA
ZL83522453,8/4/2017,,,Employee,fast food restaurent,,NA,work is fine but customer not availablea and employees having no information,,"3 LSC , DDA MARKET , PUSHPA BHAWAN , MADANGIR",,,,,NA,NA,,,,,,,,NA,NA
ZL74677004,8/4/2017,,,Employee,Graphics dye maker,,NA,Good Work,,C-57 OKHLA INDUSTRIAL AREA PHASE-1,,,,,NA,NA,,,,,,,,NA,NA
ZL81373549,8/8/2017,,,Customer,Footwear supplier,,NA,Work is slow due to Gst,,"313/2B , SHOP NO. 4 ,INDERLOK , DELHI",,,,,1,2,,,,,,,,NA,NA
ZL81690800,8/8/2017,,,Customer,Bearing whole seller,,NA,Good Work,,1519/11 F/F GALI AKHUNJJ FARASH KAHANA GB ROAD DELHI,,,,,2,3,,,,,,,,NA,NA
ZL19492634,8/8/2017,,,NA,shop closed,,NA,shop closed,,1455/17 2ND FLOOR SHRI RAM MARKET GALI CHHIPAIN MALIWARA NAI SADAK CHANDANI CHOWK,,,,,NA,NA,,,,,,,,NA,NA
ZL96698094,8/9/2017,,,Customer,Confechnary shop,,NA,Good Work,,"PLOT NO- 2 A, KH.NO- 21, PREM VIHAR, NAJAFGARH",,,,,1,1,,,,,,,,NA,NA
ZL75688898,8/9/2017,,,NA,shop closed,,NA,shop closed,,H.N. 104 SHIV PURI PHASE 1 NAJAFGARH,,,,,NA,NA,,,,,,,,NA,NA
ZL4751775,8/10/2017,,,Customer,readymade garments shop,,NA,Good Work,,SHOP NO. 6844 MAIN BABARPUR ROAD EAST ROHTAS NAGAR SAHADRA,,,,,1,1,,,,,,,,NA,NA
ZL50963082,8/10/2017,,,Customer,Cardbord factory,,NA,Good Work,,"82/6 GALI NO-9,MOHAN PURI,MAUJ PUR SHAHDRA",,,,,4,7,,,,,,,,NA,NA
ZL4362474,8/10/2017,,,NA,shop closed,,NA,shop closed,,"G-95,GALI NO-3,WEST KARAWAL NAGAR",,,,,NA,NA,,,,,,,,NA,NA
ZL98730804,8/10/2017,,,Customer,arcitact work,,NA,Good Work,,K/5/6 STREET NO 6 WEST GHONDA NEW DELHI 110053 SHAHDRA,,,,,1,2,,,,,,,,NA,NA
ZL35480979,8/10/2017,,,Employee,Toys Manufacturer,,NA,Good Work,,D2 GALI NO 16 GAMRI EXTN BHAJANPURA,,,,,NA,NA,,,,,,,,NA,NA
ZL19757310,8/11/2017,,,Customer,study institute,,NA,Good Work,,1/17 LALITA PARK OPP METRO PILLAR NO.26 NEAR LAXMI NAGAR METRO STATION SHAHDRA,,,,,7,12,,,,,,,,NA,NA
ZL4362474,8/11/2017,,,Customer,Readymade shirts wholeseller,,NA,Good Work,,"G-95,GALI NO-3,WEST KARAWAL NAGAR",,,,,1,2,,,,,,,,NA,NA
ZL76860764,8/14/2017,,,Father,Glasses shop,,NA,Good Work,,"B-5 JAI PRAKASH ROAD, NEAR NANDA ROAD, AADARSH NAGAR",,,,,NA,NA,,,,,,,,NA,NA
ZL77931242,8/14/2017,,,Customer,Bedsheets & Curtain wholeseller,,NA,Good Work,,"1/30 , FRONT PORTION,VIJAY NAGAR DOUBLE STORY 110009",,,,,1,2,,,,,,,,NA,NA
ZL58248278,8/16/2017,,,Customer,Glasses shop,,NA,Good Work,,SHOP NO. 4 HANS COLONY NEAR HANS PARK OPP SECTOR-23A GURGAON 122001,,,,,2,2,,,,,,,,NA,NA
ZL92034282,8/16/2017,,,Customer,money transfer,,NA,Good Work,,"COMMERCIAL SHOP SITUATED IN BASEMENT OPP-SBI BANK, M.G. ROAD",,,,,2,3,,,,,,,,NA,NA
ZL82715971,8/16/2017,,,Customer,Number plates manufacturer,,NA,Good Work,,"1/5 OPP. MAX FLOW PUMP,NEAR LAXMI UDYOG,OPP. SEC 10 ,GURGAON",,,,,9,13,,,,,,,,NA,NA
ZL23125781,8/16/2017,,,NA,Wrong address,,NA,Wrong address,,"SHOP NO-3, SUBHASH NAGAR, NEW RAILWAY RAOD, GURGAON",,,,,NA,NA,,,,,,,,NA,NA
ZL87372914,8/17/2017,,,Employee,Plastic rope maker,,NA,Negative Remarks customer not meet on 1 st and 2nd visit also not answering the calls,,"PLOT NO-33,GROUND FLR,PKT B,SEC-1,BAWANA DSIDC",,,,,NA,NA,,,,,,,,NA,NA
ZL62586560,8/17/2017,,,Customer,atta chaki shop,,NA,Good Work,,"DDA 104 AND 105, DDA COLONY, KHYALA",,,,,2,3,,,,,,,,NA,NA
ZL83374059,8/17/2017,,,Customer,Dye manufactuer,,NA,Good Work,,B 48 SECTOR 2 DSIDC BAWANA INDUSTRIAL AREA,,,,,6,8,,,,,,,,NA,NA
ZL25327792,8/17/2017,,,Customer,"Paper Plates ,Tissues manufactuere",,NA,Good Work,,"KH NO 51, PLOT NO 462 ,AREA 310 SQ YDS ,VILLAGE SHAHBAD DAULAT PUR, OLD LAL DORA",,,,,12,17,,,,,,,,NA,NA
ZL27933575,8/19/2017,,,Customer,wholeseller of crocery,,NA,Good Work,,"2352/101 , GALI NO - 14 , BEADON PURA , KAROL BAGH",,,,,2,3,,,,,,,,NA,NA
ZL73076285,8/19/2017,,,NA,Wrong address,,NA,Wrong address,,466/5 1ST FLOOR ZEENAT BARI HAMINTON ROAD KASHMIRI GATE,,,,,NA,NA,,,,,,,,NA,NA
ZL39729507,8/19/2017,,,NA,shop closed,,NA,shop closed,,"A-542, A BLOCK, SHASTRI NAGAR, ASHOK VIHAR, NORTH WEST DELHI",,,,,NA,NA,,,,,,,,NA,NA
ZL25624401,8/23/2017,,,Customer,sprays manufacturer,,NA,Good Work,,"SHOP NO-02,KH.NO-7/5,SHIVRAM COLONY NEAR K P DHARAM KATA ,NILOTHI DELHI 110041",,,,,5,6,,,,,,,,NA,NA
ZL99921384,8/23/2017,,,Employee,Chimney manufacturer,,NA,Good Work,,"48/34, KHAYALA, NEAR KRISHNA DHARM KATA, DELHI 110018",,,,,NA,NA,,,,,,,,NA,NA
ZL82530113,9/4/2017,,,Customer,Bags trading,,NA,Good Work,,"40/26,GALI NO-4, KHEDA GADHI, NEAR MOHAN ATTA CHOWK/",,,,,11,20,,,,,,,,NA,NA
ZL42209725,9/4/2017,,,Employee,computers work,,NA,Good Work,,"BUILDING NO-M237 , G.F POCKET -15 SEC-24 ROHINI",,,,,NA,NA,,,,,,,,NA,NA
ZL57137223,9/5/2017,,,Employee,CONFENCERY,,NA,Good Work,,"G-20, VASANT SQUARE MALL, VASANT KUNj",,,,,NA,NA,,,,,,,,NA,NA
ZL2992655,9/5/2017,,,Employee,Man power security provider,,NA,Good Work,,A 212 GF A BLOCK CHATTARPUR EXTNDELHI -110074,,,,,NA,NA,,,,,,,,NA,NA
ZL17624268,9/5/2017,,,NA,Client denied to meet disconnect the calls,,NA,Client denied to meet disconnect the calls,,KHASRA NUMBER 1285/439/195 GROUND FLOOR WEST MOTI BAGH SARAI ROHLA,,,,,NA,NA,,,,,,,,NA,NA
ZL93210332,9/6/2017,,,NA,Office Closed,,NA,Office Closed,,A-93 SHYAMPARK EXTATION HANUMAN MANDIR SAHIBABAD GHAZIABAD 201005,,,,,NA,NA,,,,,,,,NA,NA
ZL69807019,9/6/2017,,,NA,Shop sale out,,NA,Shop sale out,,"D-45/2,SHYAM PARK EXT,SAHIBABAD",,,,,NA,NA,,,,,,,,NA,NA
ZL1662546,9/7/2017,,,NA,Office Closed,,NA,Office Closed,,C-149 GROUND FLOOR INDER ENCLAVE-1 KIRARI SULEMAN NAGAR DELHI -110086,,,,,NA,NA,,,,,,,,NA,NA
ZL18951729,9/7/2017,,,Employee,signboard manufacturer,,NA,Good Work,,17/15 ANAND PARBAT INDUSTRIAL AREA NEW DELHI-110005,,,,,NA,NA,,,,,,,,NA,NA
ZL95991063,9/7/2017,,,Neighbour,shop open but nobody is available and client no is ringing,,NA,shop open but nobody is available and client no is ringing,,"SHOP NO-2/1B,GF, STREET NO 1, NEW ROHTAK ROAD, ANAND PARBAT INDL. AREA,NEW DELHI",,,,,NA,NA,,,,,,,,NA,NA
ZL85071447,9/11/2017,,,Neighbour,shop closed,,NA,shop closed,,1/6 SHOP NO-25 KIRTI HOUSE KIRTI NAGAR INDUSTRIAL AREA 110015 NROLD PETROL PUMP,,,,,NA,NA,,,,,,,,NA,NA
ZL9163781,9/11/2017,,,Employee,steel work,,NA,Good Work,,"A-74,WAZIRPUR INDUSTRIAL AREA",,,,,NA,NA,,,,,,,,NA,NA
ZL33631203,9/11/2017,,,NA,shop closed,,NA,shop closed,,"G-6/97,SECTOR-16, ROHINI DELHI 110085",,,,,NA,NA,,,,,,,,NA,NA
ZL51233692,9/12/2017,,,NA,Wrong address,,NA,Wrong address,,B-55 STREET NO 4 JAGAT PURI NEAR VISH KARMA GATE SHAHDARA ,,,,,NA,NA,,,,,,,,NA,NA
ZL59257229,9/12/2017,,,Employee,Hero Bikes showroom,,NA,Good Work,,A 10 G/F MAIN ROAD GAZI PUR NEAR PETROL PUMP DELHI -110091,,,,,NA,NA,,,,,,,,NA,NA
ZL17068151,9/12/2017,,,Customer,cosmetics shop,,NA,Good Work,,21 GF PARVANA ROAD RADHEYSHYAM PARK DELHI 110051 NEAR KRISHNA NAGAR,,,,,2,3,,,,,,,,NA,NA
ZL42822088,9/13/2017,,,NA,shop closed,,NA,shop closed,,"H- 8 GALI 1.BEHARE.PUR EXTN,NEAR BY CRPF CAMP PUSHPA ROAD VESTAR 110094",,,,,NA,NA,,,,,,,,NA,NA
ZL51233692,9/13/2017,,,Customer,Printing of boards and cards,,NA,Good Work,,B-55 STREET NO 4 JAGAT PURI NEAR VISH KARMA GATE SHAHDARA ,,,,,4,6,,,,,,,,NA,NA
ZL26452618,9/13/2017,,,Customer,Blood Test labortory,,NA,Good Work,,"SHOP ON G.F., FLAT NO. 393-A, PKT J AND K, DILSHAD GARDEN ",,,,,4,5,,,,,,,,NA,NA
ZL19144491,9/13/2017,,,Customer,Trophy Manufacturer,,NA,as per my understanding client has stopped our business,,F-2/394 SUNDER NAGRI 110093 SHAHDRA,,,,,1,1,,,,,,,,NA,NA
ZL33631203,9/15/2017,,,Customer,Seeds and Pulses manufacturer,,NA,Good Work,,"G-6/97,SECTOR-16, ROHINI DELHI 110085",,,,,2,3,,,,,,,,NA,NA
ZL85071447,9/15/2017,,,Employee,courier shop,,NA,Good Work,,1/6 SHOP NO-25 KIRTI HOUSE KIRTI NAGAR INDUSTRIAL AREA 110015 NROLD PETROL PUMP,,,,,NA,NA,,,,,,,,NA,NA
ZL79703842,9/15/2017,,,Customer,exporter,,NA,Good Work,,9238/5 MULTANI DHANDA PAHARGANJ 110055,,,,,10,15,,,,,,,,NA,NA
ZL30672510,9/16/2017,,,Customer,Manufacturer of 2 wheelers items,,NA,Good Work,," KH NO 989/335 , VPO BASAI ,GURGAON 122001",,,,,9,11,,,,,,,,NA,NA
ZL23125781,9/16/2017,,,Customer,idea showrooma and led wholeseller,,NA,Good Work,,"SHOP NO-3, SUBHASH NAGAR, NEW RAILWAY RAOD, GURGAON",,,,,1,2,,,,,,,,NA,NA
ZL53510296,9/16/2017,,,Customer,colddrink supplier,,NA,Good Work,,"SULTANPUR MORE , FARUKH NAGAR GURGOAN",,,,,2,5,,,,,,,,NA,NA
#N/A,9/18/2017,,,Customer,Chemist shop ,,NA,Good Work,,#N/A,,,,,2,3,,,,,,,,NA,NA
ZL74047842,9/18/2017,,,NA,shop closed,,NA,shop closed,,"181-B, GROUND FLOOR, KHIRKI VILLAGE, MALVIYA NAGAR, NEW DELHI",,,,,NA,NA,,,,,,,,NA,NA
ZL40155985,9/19/2017,,,Customer,Tin Boxes supplier,,NA,Good Work,,"PLOT NO 375, SARAI NAZAR ALI, NEAR GHANTA GHAR, GHAZIABAD",,,,,19,27,,,,,,,,NA,NA
ZL1239556,9/19/2017,,,Customer,Softwear engineer and provider,,NA,Good Work,,SF4 PLOT NO. 54 NYAY KHAND 1 INDIRAPURAM GAZIABAD,,,,,5,8,,,,,,,,NA,NA
ZL21333331,9/19/2017,,,Customer,whiper Manufacturer,,NA,Good Work,,A 4/3/21 SOUTH SIDE G.T. ROAD INDUSTRIAL AREA VIJAY NAGAR GAZIABAD,,,,,3,6,,,,,,,,NA,NA
ZL73076285,9/19/2017,,,Customer,Travel Agent,,NA,Good Work,,466/5 1ST FLOOR ZEENAT BARI HAMINTON ROAD KASHMIRI GATE,,,,,3,3,,,,,,,,NA,NA
ZL42314953,9/20/2017,,,NA,Wrong address,,NA,Wrong address,,PLOT NO.457 VILLAGE KASAN NEAR JAIN MANDIR GURGOAN,,,,,NA,NA,,,,,,,,NA,NA
ZL31652993,9/20/2017,,,NA,shop closed,,NA,shop closed,,"OPP- PRAKASH VATIKA , MATA ROAD , RAJIV NAGAR GURGAON122001",,,,,NA,NA,,,,,,,,NA,NA
ZL37276353,9/21/2017,,,Neighbour,shop open but nobody is available and client no is wrong,,NA,Good Work,,"SHOP NO.53, RAM SWAROOP COLONY, NEAR SHIV GANESH DHARAM KANTA, MUJESAR, NIT FARIDABAD",,,,,NA,NA,,,,,,,,NA,NA
ZL83740181,9/21/2017,,,NA,lab closed,,NA,lab closed,,"SECTOR 30, HUDA MARKET, OPP MOTHER DAIRY FARIDABAD",,,,,NA,NA,,,,,,,,NA,NA
ZL47718495,9/21/2017,,,Customer,cold drink wholeseller,,NA,Good Work,,"SHOP NO-1,PLOT NO-32, PURAN ENCLAVE OLD FARIDABAD ",,,,,2,3,,,,,,,,NA,NA
ZL25768795,9/21/2017,,,Employee,tools and screw manufacturer,,NA,Good Work,,SHOP NO 198 MUJESHWAR NIT FARIDABAD ,,,,,NA,NA,,,,,,,,NA,NA
ZL87174169,10/4/2017,,,NA,shop closed,,NA,shop closed,,C28 SECTOR 10 NOIDA,,,,,NA,NA,,,,,,,,NA,NA
ZL83635907,10/4/2017,,,Customer,Hightech institute,,NA,Good Work,,"V-22,BASEMENT,VIKRAMADITYA PLACE,SECTOR-27,ATTA,G.B.NAGAR NEAR VINAYAK HOSPITAL",,,,,5,10,,,,,,,,NA,NA
ZL30298332,10/4/2017,,,Employee,website designer,,NA,Good Work,,"OFFICE NO.-101, F F-32-C, BR COMPLEX, PATPARGANJ VILLAGE, MAYUR VIHAR, PHASE-1",,,,,NA,NA,,,,,,,,NA,NA
ZL16992884,10/5/2017,,,Customer,Steel items making,,NA,Good Work,,"PLOT NO 79, SECTOR 7, IMT MANESAR",,,,,7,8,,,,,,,,NA,NA
ZL3599503,10/5/2017,,,NA,wrong address and customer denied to meet,,NA,wrong address and customer denied to meet,,"SHOP NO 81, NEW ANAZ MANDI, KHANDSA ROAD",,,,,NA,NA,,,,,,,,NA,NA
ZL87174169,10/6/2017,,,Customer,Dye manufacturer,,NA,Good Work,,C28 SECTOR 10 NOIDA,,,,,6,6,,,,,,,,NA,NA
ZL88740052,10/6/2017,,,NA,Wrong address,,NA,Wrong address client belongs to delhi visit done at noida,, N-501 SAURABH VIHAR NEAR KERALA PUBLIC SCHOOL JAITPUR NOIDA,,,,,NA,NA,,,,,,,,NA,NA
ZL44434297,10/10/2017,,,Customer,automobile parts dye maker,,NA,Good Work,,"H.NO-57,GALI NO-4,SANKAR TEK CHAND NAGAR",,,,,5,7,,,,,,,,NA,NA
ZL53569697,10/10/2017,,,Customer,2 wheeler parts trading,,NA,Good Work,,135/31 BAJGHERA ROAD RAJENDRA PARK GURGAON ,,,,,17,18,,,,,,,,NA,NA
ZL83740181,10/13/2017,,,Customer,blood test lab,,NA,Good Work,,"SECTOR 30, HUDA MARKET, OPP MOTHER DAIRY FARIDABAD",,,,,1,2,,,,,,,,NA,NA
ZL93905061,10/13/2017,,,Customer,milk factory,,NA,Good Work,,INDIRA INDUSRIAL COMPLEX HARI NAGAR TIGAON ROAD NEAR RR FOOD PVT LTD OLD FARIDABAD,,,,,14,16,,,,,,,,NA,NA
ZL83730447,10/13/2017,,,Customer,Bearing shop,,NA,"As per client he is not well last month and emi bound due to this,but now he fine and pay all emi time to time",,SHOP NO-33 RAMNEEK SHOPING COMPLEX OPP TIKONA PARK FARIDABAD,,,,,1,3,,,,,,,,NA,NA
ZL88740052,10/13/2017,,,Customer,Foil Paper wholeseller,,NA,Good Work,, N-501 SAURABH VIHAR NEAR KERALA PUBLIC SCHOOL JAITPUR NOIDA,,,,,1,1,,,,,,,,NA,NA